------------------------------------------------------------------------
r1009063 | scripty | 2009-08-09 04:17:45 +0000 (Sun, 09 Aug 2009) | 1 line

SVN_SILENT made messages (.desktop file)
------------------------------------------------------------------------
r1009872 | scripty | 2009-08-11 03:17:22 +0000 (Tue, 11 Aug 2009) | 1 line

SVN_SILENT made messages (.desktop file)
------------------------------------------------------------------------
r1011225 | scripty | 2009-08-14 03:21:16 +0000 (Fri, 14 Aug 2009) | 1 line

SVN_SILENT made messages (.desktop file)
------------------------------------------------------------------------
